{
    "ionic-plugin-keyboard": {
        "source": {
            "type": "registry",
            "id": "ionic-plugin-keyboard@~2.2.1"
        },
        "is_top_level": true,
        "variables": {}
    },
    "cordova-plugin-splashscreen": {
        "source": {
            "type": "registry",
            "id": "cordova-plugin-splashscreen@~4.0.1"
        },
        "is_top_level": true,
        "variables": {}
    },
    "cordova-plugin-device": {
        "source": {
            "type": "registry",
            "id": "cordova-plugin-device"
        },
        "is_top_level": true,
        "variables": {}
    },
    "cordova-plugin-console": {
        "source": {
            "type": "registry",
            "id": "cordova-plugin-console"
        },
        "is_top_level": true,
        "variables": {}
    },
    "cordova-plugin-whitelist": {
        "source": {
            "type": "registry",
            "id": "cordova-plugin-whitelist@1.3.2"
        },
        "is_top_level": true,
        "variables": {}
    },
    "cordova-plugin-statusbar": {
        "source": {
            "type": "registry",
            "id": "cordova-plugin-statusbar@2.2.3"
        },
        "is_top_level": true,
        "variables": {}
    },
    "cordova-plugin-x-socialsharing": {
        "source": {
            "type": "registry",
            "id": "cordova-plugin-x-socialsharing"
        },
        "is_top_level": true,
        "variables": {}
    },
    "cordova-plugin-camera": {
        "source": {
            "type": "registry",
            "id": "cordova-plugin-camera"
        },
        "is_top_level": true,
        "variables": {}
    },
    "cordova-plugin-compat": {
        "source": {
            "type": "registry",
            "id": "cordova-plugin-compat"
        },
        "is_top_level": false,
        "variables": {}
    },
    "uk.co.workingedge.phonegap.plugin.launchnavigator": {
        "source": {
            "type": "registry",
            "id": "uk.co.workingedge.phonegap.plugin.launchnavigator"
        },
        "is_top_level": true,
        "variables": {}
    },
    "cordova-plugin-actionsheet": {
        "source": {
            "type": "registry",
            "id": "cordova-plugin-actionsheet"
        },
        "is_top_level": false,
        "variables": {}
    },
    "cordova-plugin-crosswalk-webview": {
        "source": {
            "type": "registry",
            "id": "cordova-plugin-crosswalk-webview@~2.3.0"
        },
        "is_top_level": true,
        "variables": {}
    },
    "cordova-plugin-fcm": {
        "source": {
            "type": "registry",
            "id": "cordova-plugin-fcm"
        },
        "is_top_level": true,
        "variables": {}
    },
    "cordova-plugin-inappbrowser": {
        "source": {
            "type": "registry",
            "id": "cordova-plugin-inappbrowser@1.7.1"
        },
        "is_top_level": true,
        "variables": {}
    },
    "cordova-plugin-velda-devicefeedback": {
        "source": {
            "type": "registry",
            "id": "cordova-plugin-velda-devicefeedback"
        },
        "is_top_level": true,
        "variables": {}
    }
}